<?xml version="1.0" encoding="utf-8"?>
<!-- Generator: Adobe Illustrator 19.1.1, SVG Export Plug-In . SVG Version: 6.00 Build 0)  -->
<svg version="1.1" xmlns="http://www.w3.org/2000/svg" xmlns:xlink="http://www.w3.org/1999/xlink" x="0px" y="0px"
	 viewBox="0 0 130 130" style="enable-background:new 0 0 130 130;" xml:space="preserve">
<style type="text/css">
	.st0{fill:#FFFFFF;stroke:#243C7F;stroke-width:2;stroke-miterlimit:10;}
	.st1{fill:#243C7F;}
	.st2{fill:#E6E8F5;}
	.st3{fill:#FFFFFF;}
	.st4{fill:#3968B0;}
</style>
<g id="Calque_3">
	<ellipse class="st0" cx="64.9" cy="65.3" rx="59.7" ry="59.7"/>
</g>
<g id="Calque_2">
	<g>
		<path class="st1" d="M25.6,20.5c4.1-3.3,8.3-6.5,13.2-8.8c6.4-3,12.9-5.1,20-5.8c3.9-0.4,7.9-0.5,11.8-0.2
			C75.8,6.1,81,7.4,86.1,9.2c1.8,0.8,3.6,1.5,5.4,2.3l0,0c0.1,0.2,0.2,0.3,0.4,0.3c6.6,3.2,12.3,7.5,17.3,12.8
			c0.9,0.9,1.3,2.1,2.5,2.7c3.2,4.3,6.1,8.7,8.3,13.6c2.1,4.7,3.4,9.6,4.4,14.7c0.9,4.9,0.9,9.8,0.6,14.6
			c-0.5,6.7-2.2,13.1-4.9,19.3c-3.5,8-8.7,14.9-15.2,20.7c-7.3,6.5-15.8,11-25.5,13.2c-3.8,0.9-7.6,1.3-11.5,1.5
			c-8.2,0.5-16.1-0.9-23.8-3.7c-5.7-2.1-11-5.2-15.8-9c-7.6-6-13.3-13.5-17.3-22.2c-2.5-5.5-4.1-11.3-4.8-17.3
			c-1.1-10.2,0-20,3.7-29.6c0.6-1.7,1.4-3.3,2.2-5c0.9-1.4,1.8-2.8,2.6-4.3c1.6-2.8,3.8-5.3,5.7-7.9C22,24.1,23.8,22.3,25.6,20.5z
			 M95.1,79.1c-0.5-0.8-0.4-1.7-0.4-2.6c2,1.3,4.4,2.2,6.1,4.1c1.3,1.5,1.6,3.2,0.3,4.7c-0.5,0.6-0.8,0.7,0.1,1.3
			c3.1,2,3.1,4.9,0.2,7.2c-0.6,0.5-0.7,0.9-0.7,1.6c0,2.4-0.9,3.3-3.3,3.3c-1.7,0.1-3.4-0.3-5.1-0.6c-0.8-0.2-1.4-0.2-1.3,0.9
			c0.1,1.3-0.5,2-1.9,2.3c-1.9,0.4-3.7,0.7-5.6,0.7c-3.1,0-6.2,0-9.3-0.2c-2.5-0.1-5-0.7-7.4,0.2c-1.3,0.5-2.6,0.4-3.8,0.1
			c-0.6-0.2-1-0.1-1.4,0.3c-2.1,2.1-4.7,3.5-7.3,4.8c-4.6,2.3-8.6,5.3-11.8,9.3c25.6,12.1,61.8,2,75.2-30.9
			c11.3-27.7-2-61.5-32.7-73.3c-0.8-0.4-1.6-0.7-2.5-0.8c-1.6-0.9-3.3-1.1-5.1-1.4C76.8,9.9,76,10,75.3,10c-1.2-0.5-2.4-0.6-3.6-0.7
			c-0.6,0-1.2,0-1.8,0c-1.3-0.7-2.7-0.2-4-0.3c-1,0-2,0-2.9,0c-2.1,0.1-4.1,0.4-6.1,0.7c-4.9,0.7-9.7,2-14.2,4.1
			c-8.3,3.8-15.4,9.1-21.1,16.3c-5.1,6.4-8.7,13.4-10.8,21.4c-0.4,1.5,0,1.8,1.2,2.2c6.2,1.8,12.4,3.6,18.7,5.1
			c1.7,0.4,2.1,0,2.6-1.5c1-3.1,2-6.2,3.3-9.2c0.9-2.1,1.5-4.9,4.9-4.2c0.4,0.3,0.7,0.5,1.1,0.8c0.9,1,1.8,2.1,2.1,3.6
			c0.3,1.5,0.6,3,0.7,4.5c0.1,0.8,0.4,1.1,1.1,0.9c2.4-0.6,4.8-0.7,7.2-0.7c-0.3,0.7-0.6,1.2,0.5,1.6c0.9,0.3,1.3,0,1.6-0.7
			c0.3-0.6,0.5-1.3,0.8-1.9c1.1-0.2,2.4-0.8,3.4-0.5c1.2,0.3,1.8,0,2.4-0.8c0.9-1,1.9-1.8,3.4-1.6c0.5,0.1,0.9-0.3,1.3-0.5
			c2.1-1.3,4.1-2.9,6.5-3.7c1.9-0.6,3.1-0.2,3.9,1.4c0.6,1.4,1.3,1.4,2.5,0.7c2.1-1.1,4-0.4,5.2,1.7c0.8,1.3,1.8,2.5,2.7,3.7
			c0.9,1.3,1,2.3,0.4,3.6c-0.7,1.5-1.5,3-2.6,4.3c-0.4,0.5-1,1.2,0.2,1.7c0.8,0.4,1.1,1.3,1.1,2.3c-0.1,2.1-1,3.8-1.9,5.6
			c-0.6,1.2-0.5,2.1,0.6,2.6c2.2,1.1,4.4,2,6.7,3c0.1,0.9,0.2,1.7,0.4,2.6c-2-0.9-4-1.9-6-2.9c-0.2,1.3-0.4,2.6-1.1,3.6
			c-1.2,1.7-1.2,1.7,0.7,2.4c0.5,0.2,1,0.3,1.5,0.5c3.4,1.3,6.9,2.5,10.3,3.8c1.4,0.5,1.3-0.9,1.9-1.3c0.5-0.4,0.4-1.2-0.2-1.7
			C98.1,81.1,96.6,80.1,95.1,79.1z M43.6,53.7c-0.4-2-0.4-4.3-1.5-6.3c-0.4-0.8-0.9-1.7-1.8-1.7c-0.9,0-1.1,1.1-1.5,1.8
			c-1.6,3.3-2.7,6.8-3.9,10.2c-2.6,7.3-4.8,14.7-7.8,21.9c-1.4,3.2-2.1,6.8-0.5,10.3c1.6,3.6,0.1,6.3-2.1,8.7
			c-2.6,2.9-2.6,2.9,0.1,5.7c4.1,4.1,8.7,7.7,13.9,10.5c1.6,0.9,2.3,0.9,3.5-0.4c3.2-3.6,6.8-6.8,11.2-8.7c7-3.1,11.7-8.8,16.2-14.6
			c3.6-4.7,7-9.5,9.8-14.7c2-3.8,4.1-7.5,5.5-11.5c0.3-1,0-1.4-0.6-1.8c-0.8-0.6-0.9,0.3-1.3,0.7c-0.3,0.3-0.6,0.7-0.9,1.1
			c-3.2,4.7-6.5,9.3-9.9,13.9c-0.5,0.7-1,2.2-2.2,1.2c-1.2-0.9,0.2-1.7,0.7-2.3c4-5.6,8-11.2,12-16.9c1.3-1.9,2.9-3.6,3.9-5.8
			c0.4-0.8,0.5-1.4-0.5-1.8c-0.8-0.3-1.1-0.8-1.9,0.3c-1.2,1.8-2.8,3.4-4.2,5c-4.5,5.2-9,10.4-13.4,15.6c-0.5,0.6-1,1-1.5,0.6
			c-0.6-0.5-0.5-1.1,0.1-1.8c3-3.5,5.9-7.1,8.9-10.6c3-3.5,6-7,9-10.5c0.7-0.8,1.1-1.8,0.2-2.9c-0.9-1.1-1.8-0.8-2.8-0.2
			c-0.3,0.2-0.6,0.3-0.9,0.5c-3.6,2.5-6.5,5.9-9.8,8.8c-3.3,2.9-6.3,6-9.5,9c-0.6,0.6-1.6,1.4-2.3,0.7c-0.8-0.8,0.2-1.6,0.9-2.1
			c5.6-5.3,11.2-10.5,16.8-15.7c1.1-1,1-1.8,0.3-2.8c-0.8-1.1-1.7-0.9-2.6-0.3c-0.6,0.3-1.2,0.7-1.8,1.1C64,52.4,57.9,58.5,51.3,64
			c-2.3,1.9-4.6,3.6-7.4,4.5c-2.4,0.8-4.4-0.7-3.9-2.9c0.5-2.2,1.1-4.3,2.2-6.2C43.2,57.7,43.4,55.8,43.6,53.7z M23.9,83.7
			c0.5-1.8,1-3.7,1.7-5.4c2.2-5.4,4-10.9,5.9-16.4c0.3-0.8,0.1-0.9-0.7-1.1c-6.7-1.6-13.4-3.4-20-5.6c-0.6-0.2-1-0.4-1.1,0.5
			c-0.2,1.9-0.6,3.7-0.7,5.6c-0.4,6.8,0.4,13.4,2.1,20c0.3,1.1,0.8,1.5,2,1.5C16.8,82.7,20.4,82.5,23.9,83.7z M64.1,100.6
			c2,0.2,3.2-0.6,4.4-1.7c0.7-0.6,1.3-1.2,2.3-1c2.2,0.4,2.9,0,3.6-2.1c0.2-0.7,0.4-1,1.1-1.1c4.1-0.2,5.4-2,3.9-5.7
			c-0.4-1.1-0.6-1.8,0.9-2.2c3.1-0.8,4-3.3,2.1-6.1c-0.9-1.3-0.9-2.1,0.6-3c1.9-1.2,1.9-3.1,0.1-4.7C78.2,83.1,71.6,92,64.1,100.6z
			 M12.6,85.1c1.6,4.3,3.7,8.4,6.4,12.2c1.8,2.6,1.8,2.7,3.8,0.4c0.2-0.2,0.4-0.3,0.5-0.5c1.7-2,3-4,1.5-6.7
			c-0.5-0.9-0.8-2.1-0.6-3.2c0.2-1.3-0.5-1.6-1.5-1.8C19.3,84.7,16,84,12.6,85.1z M82.2,88.3c3.9,0.9,7.4,1.8,11,2.7
			c1.8,0.4,3.6,1,5.4,1.4c1.2,0.2,2.3,0.1,2.9-1.3c0.6-1.3-0.4-1.8-1.1-2.4c-0.6-0.5-1.3-1-2.1-1.2c-4-1.6-8-3.1-12-4.6
			c-0.7-0.3-1,0-0.9,0.7C85.4,85.7,84.4,87.1,82.2,88.3z M82.2,90.3c-0.3,1.1,0.1,2.1-0.5,3c-0.7,1.3,0.1,1.6,1.2,1.7
			c2.8,0.3,5.6,0.7,8.3,1.3c1.9,0.4,3.8,0.6,5.7,0.8c0.9,0.1,1.9-0.1,2.1-1.4c0.2-1.2-0.4-1.4-1.4-1.6
			C92.5,92.8,87.4,91.5,82.2,90.3z M45.1,56.6c-0.1,1.1-0.3,2-0.7,2.9c-0.8,1.6-1.6,3.2-2.1,4.9c-0.2,0.8-0.5,1.7,0.1,2.2
			c0.7,0.7,1.5-0.1,2.1-0.4c3.9-2.2,7.4-5.1,10.9-8.2c-2.7-0.3-4.9-0.3-6.5,2.2c-0.5,0.8-1.3,1.1-1.7-0.3
			C46.8,58.7,46.5,57.4,45.1,56.6z M73.9,99.9c3.3,0.8,6.6,0.4,9.8,0.4c1.5,0,3-0.4,4.5-0.6c0.6-0.1,1-0.3,1-1.1
			c0-0.8-0.6-1.1-1.1-1.1c-3-0.2-6-1.1-9-1.2c-1.1-0.1-2.6,0-3.2,1.2C75.6,98.6,74.8,99.1,73.9,99.9z M52.3,54.6
			c-1.4,0-2.8,0.5-4.2,0.4c-0.4,0-1,0.3-0.7,0.6c0.4,0.5,0.8,1.8,1.1,1.6c1.5-1.1,3.3-1.1,5-1.5c0.4-0.1,0.5-0.3,0.5-0.6
			c0-0.4-0.3-0.5-0.6-0.5C53,54.6,52.7,54.6,52.3,54.6z M60.5,53.3c-3.6-0.2-5.1,1.2-4.4,4C57.5,56,58.9,54.8,60.5,53.3z"/>
		<path class="st2" d="M91.8,11.8c-0.2,0-0.3-0.1-0.4-0.3C91.5,11.6,91.7,11.7,91.8,11.8z"/>
		<path class="st3" d="M53.6,52.8c-2.4,0-4.8,0.2-7.2,0.7c-0.7,0.2-1-0.1-1.1-0.9c-0.1-1.5-0.4-3-0.7-4.5c-0.3-1.4-1.2-2.5-2.1-3.6
			c0.8-0.2,3.3-3.3,3.2-4c-0.1-0.5-0.6-0.9-1.1-1.1c-0.3-0.1-0.7-0.4-0.9,0.1c-0.7,1.4-2.1,2.5-2.3,4.2c-3.4-0.7-4,2.1-4.9,4.2
			c-1.3,3-2.3,6.1-3.3,9.2c-0.5,1.4-0.9,1.9-2.6,1.5c-6.3-1.5-12.5-3.3-18.7-5.1c-1.2-0.3-1.6-0.7-1.2-2.2c2.1-7.9,5.7-15,10.8-21.4
			c5.7-7.2,12.8-12.5,21.1-16.3c4.5-2.1,9.3-3.4,14.2-4.1C58.9,9.3,60.9,9,63,9c-0.3,0.5-0.6,1.1-1,1.6c-0.6,0.8-0.2,1.1,0.5,1.6
			c0.7,0.5,1.2,0.4,1.6-0.3c0.6-1,1.2-2,1.9-3c1.3,0.1,2.7-0.4,4,0.3c-0.5,1.4-1,2.9-1.5,4.3c-0.1,0.4-0.4,0.9,0.2,1
			c0.5,0.1,1,0.7,1.6,0.3c0.7-0.5,1.8-4.6,1.5-5.5c1.2,0.1,2.5,0.2,3.6,0.7c-0.1,0.8-0.3,1.6-0.4,2.4c-0.2,1,0.2,1.5,1.3,1.7
			c1.5,0.3,0.6-0.8,0.9-1.1c0.6-0.8,0.2-1.7,0.3-2.6c1.7,0.3,3.5,0.5,5.1,1.4c0.1,1.2,0.4,2.4,0.6,3.6c0.1,1,0.6,1.2,1.4,1.1
			c1-0.1,1-1,0.8-1.6c-0.2-0.8-0.4-1.5-0.3-2.3c30.7,11.8,44,45.5,32.7,73.3c-13.4,32.9-49.6,43-75.2,30.9c3.2-4.1,7.2-7,11.8-9.3
			c2.6-1.3,5.2-2.7,7.3-4.8c0.4-0.4,0.8-0.4,1.4-0.3c1.2,0.3,2.5,0.3,3.8-0.1c2.4-0.9,4.9-0.3,7.4-0.2c3.1,0.2,6.2,0.1,9.3,0.2
			c1.9,0,3.7-0.3,5.6-0.7c1.3-0.3,2-0.9,1.9-2.3c-0.1-1.1,0.5-1.1,1.3-0.9c1.7,0.4,3.3,0.7,5.1,0.6c2.4-0.1,3.3-1,3.3-3.3
			c0-0.7,0.1-1.1,0.7-1.6c2.9-2.3,2.8-5.2-0.2-7.2c-0.9-0.6-0.6-0.7-0.1-1.3c1.2-1.5,1-3.2-0.3-4.7c-1.7-1.9-4-2.8-6.1-4.1
			c-0.2-0.4-0.4-0.7-0.4-1.1c0-0.4,0.2-1.1-0.6-1c-0.6,0.1-1.5-0.5-1.6,0.7c-2.2-1-4.5-1.9-6.7-3c-1.1-0.5-1.2-1.4-0.6-2.6
			c0.9-1.7,1.8-3.5,1.9-5.6c0.1-1-0.2-1.9-1.1-2.3c-1.2-0.6-0.6-1.2-0.2-1.7c1.1-1.3,1.9-2.8,2.6-4.3c0.6-1.2,0.5-2.3-0.4-3.6
			c-0.9-1.2-1.9-2.4-2.7-3.7c-1.3-2-3.2-2.8-5.2-1.7c-1.2,0.7-1.9,0.7-2.5-0.7c-0.7-1.6-2-2-3.9-1.4c-2.4,0.8-4.4,2.4-6.5,3.7
			c-0.4,0.3-0.7,0.6-1.3,0.5c-1.5-0.2-2.5,0.5-3.4,1.6c-0.6,0.7-1.2,1.1-2.4,0.8c-1-0.3-2.2,0.3-3.4,0.5c0-0.2,0-0.4,0-0.5
			c0-0.7,1.4-1.3,0-2c-1.5-0.8-1.7,0.2-2,1.2C54.2,51.2,53.9,52,53.6,52.8z M66.2,24.9c0.5,0.1,0.5-0.3,0.6-0.5
			c0.5-1.2,0.8-2.6,1.4-3.8c0.5-1-0.2-1.1-0.7-1.4c-0.7-0.4-1.1-0.2-1.3,0.5c-0.4,1.1-0.8,2.2-1.3,3.3C64.4,24,65.1,25,66.2,24.9z
			 M60.8,40.3c0.1-1-0.6-1.1-1.1-1.3c-0.4-0.2-0.8-0.4-1,0.2c-0.5,1.4-1,2.9-1.6,4.3c-0.4,0.8,0.3,0.9,0.6,0.9c0.4,0.1,1,0.8,1.4,0
			C59.7,43,60.3,41.6,60.8,40.3z M63,29.1c-0.4,0-0.6,0-0.8,0.5c-0.4,1.2-0.8,2.3-1.3,3.5c-0.3,0.8-0.3,1.2,0.7,1.6
			c1,0.4,1.2,0.1,1.4-0.8c0.3-1,0.7-2,1.1-3C64.7,29.7,64.3,29.1,63,29.1z M90.1,47.7c0.2-1.6-0.4-3-0.5-4.4c0-0.6-0.5-1.2-1.4-0.7
			c-0.5,0.3-1.2,0.2-0.9,1.2c0.4,1.3,0.4,2.6,0.6,4c0.1,0.5,0.3,0.9,0.7,0.6C89,48.1,89.9,48.5,90.1,47.7z M89.5,53.1
			c-0.4-0.1-0.7,0.4-0.6,1.2c0.1,1.2,0.2,2.5,0.4,3.7c0.2,1.2,1.8,1.3,2,0.9c1-1.6-0.4-3.3-0.3-5.1C91.1,53,90.4,53.3,89.5,53.1z
			 M84.7,27.2c2.5-0.6,2.6-0.6,2-2.8c-0.2-0.7-0.3-1.4-0.3-2.1c0-0.8-0.4-1.4-1.2-1.1c-0.5,0.2-1.6,0-1.1,1.4
			C84.6,24,84.5,25.7,84.7,27.2z M93.3,68.4c-0.1-1.4-0.5-2.3-0.5-3.3c0-0.7-0.1-1.6-1.1-1.4c-0.7,0.2-1.9,0.2-1.1,1.7
			c0.4,0.8,0.1,2,0.5,2.9c0.2,0.5-0.4,1.5,0.7,1.4C92.6,69.6,93.7,69.4,93.3,68.4z M86.7,32c-0.6-0.1-1.1,0-1,0.9
			c0.2,1.4,0.5,2.8,0.7,4.2c0.1,1,0.8,0.7,1.4,0.7c0.7,0,0.9-0.5,0.8-1.1c-0.2-1.3-0.5-2.5-0.7-3.8C87.8,31.9,87.3,31.9,86.7,32z
			 M50.7,32.2c-0.1-0.4-0.8-0.5-1.2-0.8c-0.4-0.4-0.8,0.2-1,0.5c-0.7,1-1.4,2-2,3.1c-0.2,0.3-0.3,0.8,0.1,0.9
			c0.5,0.1,0.7,0.9,1.4,0.7C48.5,36.4,50.8,33,50.7,32.2z M53.2,28.6c0.1-0.1,0.3-0.2,0.5-0.4c0.6-0.9,1.2-1.9,1.8-2.8
			c0.5-0.7,0.4-1.2-0.2-1.7c-0.7-0.5-1.3-0.3-1.8,0.4c-0.5,0.8-1,1.7-1.5,2.6C51.5,27.4,52.1,28.5,53.2,28.6z M75.6,30.6
			c0-0.6,0-1.1,0-1.5c0-0.7-0.4-0.8-1-0.7c-0.5,0-1.3-0.2-1.2,0.6c0.1,1.3-0.4,2.4-0.4,3.7c0,0.5-0.1,1.1,0.8,1.1
			c0.6-0.1,1.3,0.3,1.4-0.8C75.4,32.1,75.7,31.4,75.6,30.6z M60.8,16.4c0-0.3-0.4-0.5-0.9-0.7c-0.4-0.2-0.8-0.4-1.1,0.1
			c-0.8,1.1-1.5,2.2-2.2,3.3c-0.3,0.4,0.1,0.8,0.4,0.8c0.5,0.1,0.7,0.8,1.3,0.6C58.6,20.5,60.8,17,60.8,16.4z M74.2,21.5
			c0,0.4,0,0.8,0,1.2c0,0.9,0.3,1.3,1.2,1.4c1.1,0.1,0.9-0.6,0.9-1.3c0-0.9,0-1.9,0.3-2.8c0.2-0.4,0.4-1.3-0.6-1.3
			c-0.7,0-1.3-0.2-1.6,0.9C74.2,20.2,74.2,20.9,74.2,21.5z M72.4,41.1c0,0.4,0,0.7,0,1c-0.1,0.8,0,1.5,1.2,1.4c1.2,0,1-0.7,1-1.4
			c0-0.8,0.1-1.6,0.3-2.4c0.3-0.8-0.2-1.3-1-1.6c-0.8-0.3-1,0.3-1.3,1C72.3,39.8,72.5,40.5,72.4,41.1z"/>
		<path class="st3" d="M43.6,53.7c-0.2,2.1-0.4,4-1.4,5.7c-1.1,1.9-1.7,4.1-2.2,6.2c-0.5,2.2,1.4,3.7,3.9,2.9
			c2.8-0.9,5.2-2.7,7.4-4.5c6.6-5.5,12.7-11.6,20.1-16.1c0.6-0.4,1.2-0.7,1.8-1.1c1-0.5,1.9-0.8,2.6,0.3c0.7,1,0.8,1.8-0.3,2.8
			c-5.7,5.2-11.2,10.5-16.8,15.7c-0.6,0.6-1.7,1.3-0.9,2.1c0.7,0.7,1.7-0.1,2.3-0.7c3.2-3,6.2-6.2,9.5-9c3.3-2.9,6.2-6.2,9.8-8.8
			c0.3-0.2,0.6-0.4,0.9-0.5c1-0.6,1.9-0.9,2.8,0.2c0.9,1.1,0.5,2.1-0.2,2.9c-3,3.5-6,7-9,10.5c-3,3.5-5.9,7.1-8.9,10.6
			c-0.6,0.7-0.7,1.3-0.1,1.8c0.6,0.4,1,0,1.5-0.6c4.4-5.2,8.9-10.4,13.4-15.6c1.4-1.7,3-3.2,4.2-5c0.7-1.1,1.1-0.6,1.9-0.3
			c1,0.4,0.9,1,0.5,1.8c-0.9,2.2-2.5,3.9-3.9,5.8c-4,5.7-8,11.2-12,16.9c-0.5,0.7-1.8,1.4-0.7,2.3c1.2,1,1.7-0.5,2.2-1.2
			c3.3-4.6,6.6-9.2,9.9-13.9c0.3-0.4,0.5-0.8,0.9-1.1c0.3-0.4,0.5-1.3,1.3-0.7c0.6,0.4,1,0.8,0.6,1.8c-1.4,4-3.5,7.7-5.5,11.5
			c-2.7,5.2-6.2,10.1-9.8,14.7c-4.5,5.9-9.2,11.5-16.2,14.6c-4.4,2-8.1,5.1-11.2,8.7c-1.1,1.3-1.9,1.3-3.5,0.4
			c-5.1-2.9-9.7-6.4-13.9-10.5c-2.8-2.8-2.7-2.7-0.1-5.7c2.2-2.5,3.8-5.2,2.1-8.7c-1.6-3.4-0.9-7,0.5-10.3c3-7.1,5.2-14.6,7.8-21.9
			c1.2-3.4,2.4-6.9,3.9-10.2c0.4-0.7,0.6-1.8,1.5-1.8c0.9,0,1.4,0.9,1.8,1.7C43.2,49.5,43.3,51.7,43.6,53.7z"/>
		<path class="st3" d="M23.9,83.7c-3.5-1.2-7.1-1-10.7-0.9c-1.3,0-1.7-0.4-2-1.5C9.4,74.7,8.6,68,9,61.3c0.1-1.9,0.5-3.7,0.7-5.6
			c0.1-0.9,0.5-0.7,1.1-0.5c6.6,2.2,13.3,3.9,20,5.6c0.8,0.2,1,0.3,0.7,1.1c-1.9,5.5-3.7,11-5.9,16.4C24.9,80,24.5,81.9,23.9,83.7z"
			/>
		<path class="st4" d="M64.1,100.6c7.5-8.6,14.1-17.5,19.1-27.5c1.7,1.6,1.7,3.5-0.1,4.7c-1.5,0.9-1.4,1.7-0.6,3
			c1.9,2.8,1.1,5.2-2.1,6.1c-1.5,0.4-1.4,1.1-0.9,2.2c1.5,3.7,0.2,5.6-3.9,5.7c-0.8,0-0.9,0.4-1.1,1.1c-0.6,2.1-1.4,2.5-3.6,2.1
			c-1.1-0.2-1.7,0.4-2.3,1C67.3,100,66.1,100.9,64.1,100.6z"/>
		<path class="st3" d="M12.6,85.1c3.4-1.1,6.7-0.4,10,0.2c1,0.2,1.7,0.5,1.5,1.8c-0.2,1.1,0.1,2.3,0.6,3.2c1.5,2.7,0.2,4.8-1.5,6.7
			c-0.2,0.2-0.3,0.3-0.5,0.5c-2,2.3-2,2.3-3.8-0.4C16.3,93.4,14.2,89.4,12.6,85.1z"/>
		<path class="st3" d="M82.2,88.3c2.2-1.2,3.2-2.6,3.1-4.8c0-0.7,0.2-1,0.9-0.7c4,1.5,8,3,12,4.6c0.8,0.3,1.5,0.7,2.1,1.2
			c0.7,0.6,1.7,1.1,1.1,2.4c-0.6,1.4-1.7,1.5-2.9,1.3C96.8,92,95,91.5,93.2,91C89.7,90.1,86.1,89.3,82.2,88.3z"/>
		<path class="st3" d="M95.1,79.1c1.5,1,3,1.9,4.5,2.9c0.7,0.4,0.8,1.3,0.2,1.7c-0.6,0.4-0.5,1.9-1.9,1.3c-3.4-1.3-6.9-2.5-10.3-3.8
			c-0.5-0.2-1-0.3-1.5-0.5c-1.9-0.7-1.9-0.7-0.7-2.4c0.7-1,0.8-2.3,1.1-3.6c2,1,4,1.9,6,2.9c0.1,0.6,0,1.2,0.2,1.9
			c0.4,0.9,1,0.6,1.6,0.6C95.2,80.3,95,79.6,95.1,79.1z"/>
		<path class="st3" d="M82.2,90.3c5.2,1.3,10.3,2.6,15.4,3.8c1,0.2,1.6,0.4,1.4,1.6c-0.2,1.3-1.2,1.5-2.1,1.4
			c-1.9-0.2-3.8-0.4-5.7-0.8c-2.8-0.6-5.5-1-8.3-1.3c-1.1-0.1-1.9-0.4-1.2-1.7C82.3,92.4,81.9,91.3,82.2,90.3z"/>
		<path class="st4" d="M45.1,56.6c1.5,0.8,1.7,2.1,2,3.3c0.4,1.4,1.2,1.1,1.7,0.3c1.6-2.4,3.8-2.5,6.5-2.2c-3.5,3.2-6.9,6-10.9,8.2
			c-0.6,0.4-1.4,1.1-2.1,0.4c-0.6-0.5-0.3-1.5-0.1-2.2c0.5-1.7,1.3-3.3,2.1-4.9C44.8,58.6,45,57.7,45.1,56.6z"/>
		<path class="st3" d="M73.9,99.9c0.8-0.8,1.6-1.3,2.1-2.4c0.5-1.2,2.1-1.3,3.2-1.2c3,0.2,6,1,9,1.2c0.5,0,1.1,0.3,1.1,1.1
			c0,0.8-0.4,1-1,1.1c-1.5,0.2-3,0.6-4.5,0.6C80.5,100.3,77.2,100.7,73.9,99.9z"/>
		<path class="st4" d="M71.7,9.3c0.3,1-0.8,5.1-1.5,5.5c-0.6,0.4-1.1-0.2-1.6-0.3c-0.6-0.1-0.3-0.6-0.2-1c0.5-1.4,1-2.9,1.5-4.3
			C70.5,9.3,71.1,9.3,71.7,9.3z"/>
		<path class="st4" d="M53.6,52.8c0.3-0.8,0.6-1.6,0.9-2.4c0.3-1,0.5-2,2-1.2c1.4,0.7,0.1,1.4,0,2c0,0.2,0,0.4,0,0.5
			c-0.3,0.6-0.5,1.3-0.8,1.9c-0.3,0.8-0.7,1-1.6,0.7C53,54,53.3,53.5,53.6,52.8z"/>
		<path class="st4" d="M95.1,79.1c-0.1,0.5,0.1,1.1-0.7,1.1c-0.6-0.1-1.2,0.2-1.6-0.6c-0.3-0.6-0.1-1.3-0.2-1.9
			c-0.1-0.9-0.2-1.7-0.4-2.6c0.1-1.2,1-0.6,1.6-0.7c0.7-0.1,0.6,0.6,0.6,1c0,0.4,0.2,0.8,0.4,1.1C94.7,77.5,94.5,78.3,95.1,79.1z"/>
		<path class="st4" d="M41.4,43.8c0.2-1.7,1.6-2.8,2.3-4.2c0.2-0.4,0.5-0.2,0.9-0.1c0.5,0.2,1,0.6,1.1,1.1c0.2,0.7-2.4,3.8-3.2,4
			C42.1,44.3,41.8,44.1,41.4,43.8z"/>
		<path class="st4" d="M85,12.6c-0.1,0.8,0.1,1.5,0.3,2.3c0.2,0.7,0.2,1.5-0.8,1.6c-0.8,0.1-1.2,0-1.4-1.1c-0.2-1.2-0.4-2.4-0.6-3.6
			C83.4,11.8,84.2,12.2,85,12.6z"/>
		<path class="st3" d="M52.3,54.6c0.4,0,0.7,0,1.1,0c0.3,0,0.6,0.1,0.6,0.5c0,0.3-0.1,0.5-0.5,0.6c-1.7,0.4-3.4,0.5-5,1.5
			c-0.4,0.3-0.7-1-1.1-1.6c-0.3-0.4,0.3-0.7,0.7-0.6C49.5,55.2,50.9,54.7,52.3,54.6z"/>
		<path class="st4" d="M65.9,9c-0.6,1-1.2,2-1.9,3c-0.4,0.7-0.9,0.8-1.6,0.3c-0.7-0.5-1.1-0.8-0.5-1.6c0.4-0.5,0.7-1.1,1-1.6
			C63.9,9,64.9,9,65.9,9z"/>
		<path class="st4" d="M77.4,10.4c-0.2,0.9,0.3,1.8-0.3,2.6c-0.3,0.4,0.5,1.4-0.9,1.1c-1.2-0.3-1.5-0.7-1.3-1.7
			c0.1-0.8,0.3-1.6,0.4-2.4C76,10,76.8,9.9,77.4,10.4z"/>
		<path class="st4" d="M60.5,53.3c-1.6,1.5-3,2.7-4.4,4C55.4,54.5,56.9,53.1,60.5,53.3z"/>
		<path class="st4" d="M66.2,24.9C65.1,25,64.4,24,64.8,23c0.4-1.1,0.9-2.2,1.3-3.3c0.3-0.7,0.6-0.9,1.3-0.5
			c0.5,0.3,1.2,0.4,0.7,1.4c-0.6,1.2-0.9,2.5-1.4,3.8C66.7,24.6,66.7,25,66.2,24.9z"/>
		<path class="st4" d="M60.8,40.3c-0.5,1.3-1.1,2.7-1.7,4.1c-0.4,0.8-1,0.1-1.4,0c-0.3-0.1-1-0.1-0.6-0.9c0.6-1.4,1.1-2.8,1.6-4.3
			c0.2-0.6,0.7-0.4,1-0.2C60.2,39.2,60.9,39.3,60.8,40.3z"/>
		<path class="st4" d="M63,29.1c1.2,0,1.7,0.6,1.2,1.8c-0.4,1-0.8,2-1.1,3c-0.2,0.8-0.4,1.1-1.4,0.8c-1-0.4-1-0.8-0.7-1.6
			c0.4-1.2,0.9-2.3,1.3-3.5C62.4,29.1,62.7,29.1,63,29.1z"/>
		<path class="st4" d="M90.1,47.7c-0.2,0.7-1,0.4-1.5,0.7c-0.4,0.3-0.7-0.1-0.7-0.6c-0.1-1.3-0.2-2.7-0.6-4
			c-0.3-1.1,0.4-0.9,0.9-1.2c0.9-0.5,1.3,0.1,1.4,0.7C89.6,44.8,90.3,46.2,90.1,47.7z"/>
		<path class="st4" d="M89.5,53.1c0.9,0.1,1.6-0.1,1.6,0.7c0,1.7,1.3,3.4,0.3,5.1c-0.3,0.4-1.8,0.4-2-0.9c-0.2-1.2-0.3-2.5-0.4-3.7
			C88.8,53.5,89.1,53,89.5,53.1z"/>
		<path class="st4" d="M84.7,27.2c-0.2-1.5,0-3.2-0.5-4.5c-0.5-1.4,0.6-1.2,1.1-1.4c0.8-0.3,1.2,0.2,1.2,1.1c0,0.7,0.1,1.4,0.3,2.1
			C87.2,26.6,87.2,26.6,84.7,27.2z"/>
		<path class="st4" d="M93.3,68.4c0.3,1-0.8,1.2-1.5,1.3c-1.1,0.1-0.5-0.9-0.7-1.4c-0.4-1-0.1-2.1-0.5-2.9c-0.7-1.5,0.5-1.5,1.1-1.7
			c1-0.2,1.1,0.7,1.1,1.4C92.8,66.1,93.2,67.1,93.3,68.4z"/>
		<path class="st4" d="M86.7,32c0.7,0,1.1,0,1.2,0.8c0.1,1.3,0.5,2.5,0.7,3.8c0.1,0.6-0.1,1.1-0.8,1.1c-0.5,0-1.2,0.3-1.4-0.7
			c-0.2-1.4-0.5-2.8-0.7-4.2C85.6,32,86.1,31.9,86.7,32z"/>
		<path class="st4" d="M50.7,32.2c0,0.8-2.2,4.2-2.7,4.3c-0.7,0.2-0.8-0.6-1.4-0.7c-0.4-0.1-0.3-0.6-0.1-0.9c0.6-1,1.3-2.1,2-3.1
			c0.2-0.3,0.5-0.9,1-0.5C49.9,31.7,50.7,31.8,50.7,32.2z"/>
		<path class="st4" d="M53.2,28.6c-1.1-0.1-1.7-1.2-1.2-1.9c0.5-0.9,1-1.7,1.5-2.6c0.4-0.7,1-0.9,1.8-0.4c0.7,0.5,0.7,1,0.2,1.7
			c-0.6,0.9-1.2,1.9-1.8,2.8C53.5,28.4,53.3,28.5,53.2,28.6z"/>
		<path class="st4" d="M75.6,30.6c0.1,0.7-0.2,1.5-0.3,2.3c-0.1,1.1-0.9,0.7-1.4,0.8c-0.8,0.1-0.8-0.5-0.8-1.1
			c0-1.3,0.5-2.4,0.4-3.7c-0.1-0.9,0.7-0.6,1.2-0.6c0.5,0,1,0,1,0.7C75.6,29.6,75.6,30,75.6,30.6z"/>
		<path class="st4" d="M60.8,16.4c0,0.6-2.2,4.1-2.5,4.2c-0.6,0.1-0.8-0.5-1.3-0.6c-0.3-0.1-0.6-0.4-0.4-0.8
			c0.7-1.1,1.5-2.2,2.2-3.3c0.3-0.4,0.6-0.3,1.1-0.1C60.4,15.9,60.8,16.1,60.8,16.4z"/>
		<path class="st4" d="M74.2,21.5c0.1-0.6,0.1-1.3,0.2-2c0.3-1.1,0.9-0.9,1.6-0.9c1,0,0.8,0.9,0.6,1.3c-0.3,0.9-0.3,1.9-0.3,2.8
			c0,0.7,0.1,1.3-0.9,1.3c-1,0-1.3-0.5-1.2-1.4C74.2,22.3,74.2,22,74.2,21.5z"/>
		<path class="st4" d="M72.4,41.1c0.1-0.6-0.1-1.3,0.2-2c0.3-0.7,0.5-1.2,1.3-1c0.7,0.2,1.3,0.7,1,1.6c-0.3,0.8-0.4,1.6-0.3,2.4
			c0,0.7,0.2,1.4-1,1.4c-1.2,0-1.2-0.6-1.2-1.4C72.4,41.8,72.4,41.5,72.4,41.1z"/>
	</g>
	<g>
	</g>
	<g>
	</g>
	<g>
	</g>
	<g>
	</g>
	<g>
	</g>
	<g>
	</g>
</g>
</svg>
